digraph G {
  1073741823 [shape=ellipse,style=bold,style=filled,fontsize=20,label="Resulting automaton"];
  13 [shape=box,fontsize=12,label="13\l(not Init0 and not b0 and not PV26_bump,\l [|PV27_dist-9=0; -PV28_speed+3>=0; -PV29_time+3>=0;\l   PV28_speed>=0|])\l[|  |]\l"];
  0 [shape=box,fontsize=12,label="0\l(Init0, top)\l[|  |]\l"];
  14 [shape=box,fontsize=12,label="14\l(not Init0 and not b0 and not PV26_bump,\l [|PV28_speed=0; -PV27_dist+8>=0; -PV29_time+3>=0;\l   PV27_dist-3>=0|])\l[|  |]\l"];
  1 [shape=box,fontsize=12,label="1\l(not Init0 and not b0 and PV26_bump,\l [|PV27_dist-10=0; -PV28_speed+3>=0; -PV29_time+3>=0;\l   PV28_speed-1>=0|])\l[|  |]\l"];
  3 [shape=box,fontsize=12,label="3\l(not Init0 and b0 and not PV26_bump,\l [|PV29_time-3=0; PV28_speed-2=0; -PV27_dist+8>=0;\l   PV27_dist-2>=0|])\l[|  |]\l"];
  4 [shape=box,fontsize=12,label="4\l(not Init0 and b0 and not PV26_bump,\l [|PV29_time-3=0; PV27_dist-9=0; -PV28_speed+2>=0;\l   PV28_speed>=0|])\l[|  |]\l"];
  5 [shape=box,fontsize=12,label="5\l(not Init0 and not b0 and not PV26_bump,\l [|PV29_time-3=0; PV28_speed-3=0; -PV27_dist+8>=0;\l   PV27_dist-3>=0|])\l[|  |]\l"];
  6 [shape=box,fontsize=12,label="6\l(not Init0 and b0 and not PV26_bump,\l [|PV28_speed-2=0; -PV27_dist+8>=0; -PV29_time+2>=0;\l   PV27_dist-2>=0|])\l[|  |]\l"];
  7 [shape=box,fontsize=12,label="7\l(not Init0 and not b0 and not PV26_bump,\l [|PV28_speed=0; PV27_dist-9=0; PV29_time-4>=0|])\l[|  |]\l"];
  8 [shape=box,fontsize=12,label="8\l(not Init0 and not b0 and not PV26_bump,\l [|PV28_speed=0; -PV27_dist+8>=0; PV29_time-4>=0;\l   PV27_dist>=0|])\l[|  |]\l"];
  9 [shape=box,fontsize=12,label="9\l(not Init0 and b0 and not PV26_bump,\l [|PV29_time-3=0; -PV27_dist+8>=0; -PV28_speed+1>=0;\l   PV28_speed>=0; PV27_dist-PV28_speed>=0|])\l[|  |]\l"];
  10 [shape=box,fontsize=12,label="10\l(not Init0 and b0 and not PV26_bump,\l [|PV27_dist-9=0; -PV28_speed+2>=0; -PV29_time+2>=0;\l   PV28_speed>=0|])\l[|  |]\l"];
  11 [shape=box,fontsize=12,label="11\l(not Init0 and not b0 and not PV26_bump,\l [|PV28_speed-3=0; -PV27_dist+8>=0; -PV29_time+2>=0;\l   PV27_dist-3>=0|])\l[|  |]\l"];
  12 [shape=box,fontsize=12,label="12\l(not Init0 and b0 and not PV26_bump,\l [|-PV27_dist+8>=0; -PV28_speed+1>=0; -PV29_time+2>=0;\l   PV28_speed>=0; PV27_dist-PV28_speed>=0|])\l[|  |]\l"];
  "(9,9,Disc)" [fontsize=8,fontcolor=blue,fontname=Courier,labelfontsize=12,label="not s{\l PV29_time = PV29_time;\l PV28_speed = { PV28_speed+1 IF m,\l                PV28_speed IF not m };\l PV27_dist = { PV27_dist+1 IF m,\l               PV27_dist IF not m };\l PV33_env = PV33_env;\l PV26_bump = false;\l b0 = true;\l Init0 = false\l}\l"];
  "(12,6,Disc)" [fontsize=8,fontcolor=blue,fontname=Courier,labelfontsize=12,label="not s and m{\l PV29_time = PV29_time;\l PV28_speed = PV28_speed+1;\l PV27_dist = PV27_dist+1;\l PV33_env = PV33_env;\l PV26_bump = false;\l b0 = true;\l Init0 = false\l}\l"];
  "(10,10,Disc)" [fontsize=8,fontcolor=blue,fontname=Courier,labelfontsize=12,label="not s and not m or s\l{\l PV29_time = { PV29_time+1 IF s,\l               PV29_time IF not s };\l PV28_speed = { 0 IF s,\l                PV28_speed IF not s };\l PV27_dist = PV27_dist;\l PV33_env = PV33_env and not m;\l PV26_bump = false;\l b0 = true;\l Init0 = false\l}\l"];
  "(13,7,Disc)" [fontsize=8,fontcolor=blue,fontname=Courier,labelfontsize=12,label="s and PV29_time-3>=0{\l PV29_time = PV29_time+1;\l PV28_speed = 0;\l PV27_dist = PV27_dist;\l PV33_env = PV33_env and not m;\l PV26_bump = false;\l b0 = false;\l Init0 = false\l}\l"];
  "(12,9,Disc)" [fontsize=8,fontcolor=blue,fontname=Courier,labelfontsize=12,label="s{\l PV29_time = PV29_time+1;\l PV28_speed = 0;\l PV27_dist = PV27_dist;\l PV33_env = PV33_env and not m;\l PV26_bump = false;\l b0 = true;\l Init0 = false\l}\l"];
  "(12,10,Disc)" [fontsize=8,fontcolor=blue,fontname=Courier,labelfontsize=12,label="not s and m{\l PV29_time = PV29_time;\l PV28_speed = PV28_speed+1;\l PV27_dist = PV27_dist+1;\l PV33_env = PV33_env;\l PV26_bump = false;\l b0 = true;\l Init0 = false\l}\l"];
  "(14,8,Disc)" [fontsize=8,fontcolor=blue,fontname=Courier,labelfontsize=12,label="s and PV29_time-3>=0{\l PV29_time = PV29_time+1;\l PV28_speed = 0;\l PV27_dist = PV27_dist;\l PV33_env = PV33_env and not m;\l PV26_bump = false;\l b0 = false;\l Init0 = false\l}\l"];
  "(12,12,Disc)" [fontsize=8,fontcolor=blue,fontname=Courier,labelfontsize=12,label="true\l{\l PV29_time = { PV29_time+1 IF s,\l               PV29_time IF not s };\l PV28_speed = { 0 IF s,\l                PV28_speed+1 IF not s and m,\l                PV28_speed IF not s and not m };\l PV27_dist = { PV27_dist IF not s and not m or s,\l               PV27_dist+1 IF not s and m };\l PV33_env = PV33_env and not s or PV33_env and s and not m;\l PV26_bump = false;\l b0 = true;\l Init0 = false\l}\l"];
  "(4,1,Disc)" [fontsize=8,fontcolor=blue,fontname=Courier,labelfontsize=12,label="not s and m{\l PV29_time = PV29_time;\l PV28_speed = PV28_speed+1;\l PV27_dist = PV27_dist+1;\l PV33_env = PV33_env;\l PV26_bump = true;\l b0 = false;\l Init0 = false\l}\l"];
  "(3,3,Disc)" [fontsize=8,fontcolor=blue,fontname=Courier,labelfontsize=12,label="not s and not m{\l PV29_time = PV29_time;\l PV28_speed = PV28_speed;\l PV27_dist = PV27_dist;\l PV33_env = PV33_env;\l PV26_bump = false;\l b0 = true;\l Init0 = false\l}\l"];
  "(11,14,Disc)" [fontsize=8,fontcolor=blue,fontname=Courier,labelfontsize=12,label="true\l{\l PV29_time = { PV29_time+1 IF s,\l               PV29_time IF not s };\l PV28_speed = 0;\l PV27_dist = PV27_dist;\l PV33_env = PV33_env and not s or PV33_env and s and not m;\l PV26_bump = false;\l b0 = false;\l Init0 = false\l}\l"];
  "(3,5,Disc)" [fontsize=8,fontcolor=blue,fontname=Courier,labelfontsize=12,label="not s and m{\l PV29_time = PV29_time;\l PV28_speed = PV28_speed+1;\l PV27_dist = PV27_dist+1;\l PV33_env = PV33_env;\l PV26_bump = false;\l b0 = false;\l Init0 = false\l}\l"];
  "(13,13,Disc)" [fontsize=8,fontcolor=blue,fontname=Courier,labelfontsize=12,label="true\l{\l PV29_time = { PV29_time+1 IF s,\l               PV29_time IF not s };\l PV28_speed = 0;\l PV27_dist = PV27_dist;\l PV33_env = PV33_env and not s or PV33_env and s and not m;\l PV26_bump = false;\l b0 = false;\l Init0 = false\l}\l"];
  "(0,12,Disc)" [fontsize=8,fontcolor=blue,fontname=Courier,labelfontsize=12,label="true\l{\l PV29_time = 0;\l PV28_speed = 0;\l PV27_dist = 0;\l PV33_env = not s or s and not m;\l PV26_bump = false;\l b0 = true;\l Init0 = false\l}\l"];
  "(4,4,Disc)" [fontsize=8,fontcolor=blue,fontname=Courier,labelfontsize=12,label="not s and not m{\l PV29_time = PV29_time;\l PV28_speed = PV28_speed;\l PV27_dist = PV27_dist;\l PV33_env = PV33_env;\l PV26_bump = false;\l b0 = true;\l Init0 = false\l}\l"];
  "(3,8,Disc)" [fontsize=8,fontcolor=blue,fontname=Courier,labelfontsize=12,label="s{\l PV29_time = PV29_time+1;\l PV28_speed = 0;\l PV27_dist = PV27_dist;\l PV33_env = PV33_env and not m;\l PV26_bump = false;\l b0 = false;\l Init0 = false\l}\l"];
  "(14,14,Disc)" [fontsize=8,fontcolor=blue,fontname=Courier,labelfontsize=12,label="true\l{\l PV29_time = { PV29_time+1 IF s,\l               PV29_time IF not s };\l PV28_speed = 0;\l PV27_dist = PV27_dist;\l PV33_env = PV33_env and not s or PV33_env and s and not m;\l PV26_bump = false;\l b0 = false;\l Init0 = false\l}\l"];
  "(4,7,Disc)" [fontsize=8,fontcolor=blue,fontname=Courier,labelfontsize=12,label="s{\l PV29_time = PV29_time+1;\l PV28_speed = 0;\l PV27_dist = PV27_dist;\l PV33_env = PV33_env and not m;\l PV26_bump = false;\l b0 = false;\l Init0 = false\l}\l"];
  "(6,6,Disc)" [fontsize=8,fontcolor=blue,fontname=Courier,labelfontsize=12,label="not s and not m{\l PV29_time = PV29_time;\l PV28_speed = PV28_speed;\l PV27_dist = PV27_dist;\l PV33_env = PV33_env;\l PV26_bump = false;\l b0 = true;\l Init0 = false\l}\l"];
  "(5,8,Disc)" [fontsize=8,fontcolor=blue,fontname=Courier,labelfontsize=12,label="s{\l PV29_time = PV29_time+1;\l PV28_speed = 0;\l PV27_dist = PV27_dist;\l PV33_env = PV33_env and not m;\l PV26_bump = false;\l b0 = false;\l Init0 = false\l}\l"];
  "(3,13,Disc)" [fontsize=8,fontcolor=blue,fontname=Courier,labelfontsize=12,label="not s and m{\l PV29_time = PV29_time;\l PV28_speed = PV28_speed+1;\l PV27_dist = PV27_dist+1;\l PV33_env = PV33_env;\l PV26_bump = false;\l b0 = false;\l Init0 = false\l}\l"];
  "(10,1,Disc)" [fontsize=8,fontcolor=blue,fontname=Courier,labelfontsize=12,label="not s and m{\l PV29_time = PV29_time;\l PV28_speed = PV28_speed+1;\l PV27_dist = PV27_dist+1;\l PV33_env = PV33_env;\l PV26_bump = true;\l b0 = false;\l Init0 = false\l}\l"];
  "(9,3,Disc)" [fontsize=8,fontcolor=blue,fontname=Courier,labelfontsize=12,label="not s and m{\l PV29_time = PV29_time;\l PV28_speed = PV28_speed+1;\l PV27_dist = PV27_dist+1;\l PV33_env = PV33_env;\l PV26_bump = false;\l b0 = true;\l Init0 = false\l}\l"];
  "(7,7,Disc)" [fontsize=8,fontcolor=blue,fontname=Courier,labelfontsize=12,label="true\l{\l PV29_time = { PV29_time+1 IF s,\l               PV29_time IF not s };\l PV28_speed = 0;\l PV27_dist = PV27_dist;\l PV33_env = PV33_env and not s or PV33_env and s and not m;\l PV26_bump = false;\l b0 = false;\l Init0 = false\l}\l"];
  "(6,9,Disc)" [fontsize=8,fontcolor=blue,fontname=Courier,labelfontsize=12,label="s{\l PV29_time = PV29_time+1;\l PV28_speed = 0;\l PV27_dist = PV27_dist;\l PV33_env = PV33_env and not m;\l PV26_bump = false;\l b0 = true;\l Init0 = false\l}\l"];
  "(9,4,Disc)" [fontsize=8,fontcolor=blue,fontname=Courier,labelfontsize=12,label="not s and m{\l PV29_time = PV29_time;\l PV28_speed = PV28_speed+1;\l PV27_dist = PV27_dist+1;\l PV33_env = PV33_env;\l PV26_bump = false;\l b0 = true;\l Init0 = false\l}\l"];
  "(6,11,Disc)" [fontsize=8,fontcolor=blue,fontname=Courier,labelfontsize=12,label="not s and m{\l PV29_time = PV29_time;\l PV28_speed = PV28_speed+1;\l PV27_dist = PV27_dist+1;\l PV33_env = PV33_env;\l PV26_bump = false;\l b0 = false;\l Init0 = false\l}\l"];
  "(6,12,Disc)" [fontsize=8,fontcolor=blue,fontname=Courier,labelfontsize=12,label="s{\l PV29_time = PV29_time+1;\l PV28_speed = 0;\l PV27_dist = PV27_dist;\l PV33_env = PV33_env and not m;\l PV26_bump = false;\l b0 = true;\l Init0 = false\l}\l"];
  "(8,8,Disc)" [fontsize=8,fontcolor=blue,fontname=Courier,labelfontsize=12,label="true\l{\l PV29_time = { PV29_time+1 IF s,\l               PV29_time IF not s };\l PV28_speed = 0;\l PV27_dist = PV27_dist;\l PV33_env = PV33_env and not s or PV33_env and s and not m;\l PV26_bump = false;\l b0 = false;\l Init0 = false\l}\l"];
  "(10,4,Disc)" [fontsize=8,fontcolor=blue,fontname=Courier,labelfontsize=12,label="s{\l PV29_time = PV29_time+1;\l PV28_speed = 0;\l PV27_dist = PV27_dist;\l PV33_env = PV33_env and not m;\l PV26_bump = false;\l b0 = true;\l Init0 = false\l}\l"];
  "(5,14,Disc)" [fontsize=8,fontcolor=blue,fontname=Courier,labelfontsize=12,label="not s{\l PV29_time = PV29_time;\l PV28_speed = 0;\l PV27_dist = PV27_dist;\l PV33_env = PV33_env;\l PV26_bump = false;\l b0 = false;\l Init0 = false\l}\l"];
  "(6,13,Disc)" [fontsize=8,fontcolor=blue,fontname=Courier,labelfontsize=12,label="not s and m{\l PV29_time = PV29_time;\l PV28_speed = PV28_speed+1;\l PV27_dist = PV27_dist+1;\l PV33_env = PV33_env;\l PV26_bump = false;\l b0 = false;\l Init0 = false\l}\l"];
  "(9,8,Disc)" [fontsize=8,fontcolor=blue,fontname=Courier,labelfontsize=12,label="s{\l PV29_time = PV29_time+1;\l PV28_speed = 0;\l PV27_dist = PV27_dist;\l PV33_env = PV33_env and not m;\l PV26_bump = false;\l b0 = false;\l Init0 = false\l}\l"];
  9 -> "(9,9,Disc)";
  "(9,9,Disc)" -> 9;
  12 -> "(12,6,Disc)";
  "(12,6,Disc)" -> 6;
  10 -> "(10,10,Disc)";
  "(10,10,Disc)" -> 10;
  13 -> "(13,7,Disc)";
  "(13,7,Disc)" -> 7;
  12 -> "(12,9,Disc)";
  "(12,9,Disc)" -> 9;
  12 -> "(12,10,Disc)";
  "(12,10,Disc)" -> 10;
  14 -> "(14,8,Disc)";
  "(14,8,Disc)" -> 8;
  12 -> "(12,12,Disc)";
  "(12,12,Disc)" -> 12;
  4 -> "(4,1,Disc)";
  "(4,1,Disc)" -> 1;
  3 -> "(3,3,Disc)";
  "(3,3,Disc)" -> 3;
  11 -> "(11,14,Disc)";
  "(11,14,Disc)" -> 14;
  3 -> "(3,5,Disc)";
  "(3,5,Disc)" -> 5;
  13 -> "(13,13,Disc)";
  "(13,13,Disc)" -> 13;
  0 -> "(0,12,Disc)";
  "(0,12,Disc)" -> 12;
  4 -> "(4,4,Disc)";
  "(4,4,Disc)" -> 4;
  3 -> "(3,8,Disc)";
  "(3,8,Disc)" -> 8;
  14 -> "(14,14,Disc)";
  "(14,14,Disc)" -> 14;
  4 -> "(4,7,Disc)";
  "(4,7,Disc)" -> 7;
  6 -> "(6,6,Disc)";
  "(6,6,Disc)" -> 6;
  5 -> "(5,8,Disc)";
  "(5,8,Disc)" -> 8;
  3 -> "(3,13,Disc)";
  "(3,13,Disc)" -> 13;
  10 -> "(10,1,Disc)";
  "(10,1,Disc)" -> 1;
  9 -> "(9,3,Disc)";
  "(9,3,Disc)" -> 3;
  7 -> "(7,7,Disc)";
  "(7,7,Disc)" -> 7;
  6 -> "(6,9,Disc)";
  "(6,9,Disc)" -> 9;
  9 -> "(9,4,Disc)";
  "(9,4,Disc)" -> 4;
  6 -> "(6,11,Disc)";
  "(6,11,Disc)" -> 11;
  6 -> "(6,12,Disc)";
  "(6,12,Disc)" -> 12;
  8 -> "(8,8,Disc)";
  "(8,8,Disc)" -> 8;
  10 -> "(10,4,Disc)";
  "(10,4,Disc)" -> 4;
  5 -> "(5,14,Disc)";
  "(5,14,Disc)" -> 14;
  6 -> "(6,13,Disc)";
  "(6,13,Disc)" -> 13;
  9 -> "(9,8,Disc)";
  "(9,8,Disc)" -> 8;
  
}
